<svg width="460" height="460" viewBox="0 0 460 460" fill="none" xmlns="http://www.w3.org/2000/svg">
<g clip-path="url(#clip0_403_2333)">
<path d="M220.561 460H239.715C343.693 460 395.692 460 427.984 427.708C460.276 395.416 460 343.436 460 239.715V220.285C460 116.582 460 64.5841 427.984 32.2921C395.968 9.12475e-05 343.693 0 239.715 0H220.561C116.564 0 64.584 9.12475e-05 32.292 32.2921C-2.10571e-05 64.5841 0 116.546 0 220.285V239.715C0 343.436 -2.10571e-05 395.416 32.292 427.708C64.584 460 116.564 460 220.561 460Z" fill="#0077FF"/>
<mask id="mask0_403_2333" style="mask-type:alpha" maskUnits="userSpaceOnUse" x="0" y="0" width="460" height="460">
<path d="M220.561 460H239.715C343.693 460 395.692 460 427.984 427.708C460.276 395.416 460 343.436 460 239.715V220.285C460 116.582 460 64.5841 427.984 32.2921C395.968 9.12475e-05 343.693 0 239.715 0H220.561C116.564 0 64.5839 9.12475e-05 32.292 32.2921C-2.10571e-05 64.5841 0 116.546 0 220.285V239.715C0 343.436 -2.10571e-05 395.416 32.292 427.708C64.5839 460 116.564 460 220.561 460Z" fill="white"/>
</mask>
<g mask="url(#mask0_403_2333)">
<g clip-path="url(#clip1_403_2333)">
<path d="M557.138 436.775C557.138 436.775 560.83 434.667 557.036 426.574C568.646 423.616 565.803 421.157 565.09 418.867C563.492 413.79 509.88 376.683 505.927 371.435C501.758 365.893 494.599 333.059 494.599 333.059C494.599 333.059 485.99 327.528 477.948 328.389C469.905 329.251 447.364 306.855 459.903 337.525C472.443 368.194 474.527 379.142 477.076 386.43C481.063 397.764 494.384 404.349 505.258 411.296C510.288 414.515 513.539 423.673 518.851 433.828C522.045 439.926 530.178 439.71 528.004 431.278C525.829 422.846 522.748 406.922 525.648 408.202C532.92 411.432 551.134 443.054 557.138 436.775Z" fill="#FF8481"/>
<path d="M369.862 78.4109C369.862 78.4109 418.637 77.9803 422.579 83.5905C426.521 89.2007 421.05 100.92 421.05 100.92L366.305 99.9791L369.862 78.4109Z" fill="#313131"/>
<path d="M0.123474 228.651C-6.67297 237.435 -30.7663 291.486 -46.3188 304.803C-54.1234 311.49 -98.2323 368.658 -102.525 365.734C-106.818 362.81 -134.027 371.049 -134.027 371.049L-137.119 381.986L-117.319 424.772C-117.319 424.772 -79.3268 379.21 -74.8525 383.029C-70.3782 386.849 -91.685 359.432 -65.9378 359.874C-43.4076 360.248 41.174 266.098 41.072 267.674L20.173 226.725L0.123474 228.651Z" fill="#FF8481"/>
<path d="M376.295 501.491C376.295 501.491 430.474 494.951 442.3 497.796C496.127 494.158 529.011 543.267 541.901 541.658C573.686 537.68 497.498 467.251 480.11 450.613C464.105 435.29 451.577 450.137 436.364 452.415C427.891 453.685 380.112 449.31 380.112 449.31L376.295 501.491Z" fill="#FF8481"/>
<path d="M241.929 314.494C241.929 314.494 202.125 347.85 167.372 391.473C117.86 453.639 124.94 487.324 137.729 507.724C154.017 533.792 235.303 543.222 271.845 537.589C335.448 527.785 389.389 504.29 408.261 505.288C391.406 479.447 403.56 454.183 409.711 451.35C403.062 448.301 391.122 445.354 391.122 445.354C391.122 445.354 367.788 422.358 346.3 416.544C324.812 410.73 241.929 314.494 241.929 314.494Z" fill="#D6ECFF"/>
<path d="M402.372 372.92C398.973 408.78 363.677 486.258 365.15 504.63C366.452 520.894 445.427 554.499 453.821 573.075C462.441 592.15 450.298 636.103 427.337 638.347C416.961 639.367 414.141 643.855 283.785 604.096C269.06 599.562 231.6 582.414 227.397 541.386C222.187 490.384 273.84 384.798 267.304 333.66C265.593 320.24 330.012 280.039 370.995 296.258C389.979 303.716 405.759 337.06 402.372 372.92Z" fill="#313131"/>
<path d="M492.548 205.757C481.379 180.88 457.297 153.293 440.057 134.456C444.248 133.448 450.025 131.34 453.65 127.089C459.744 119.824 444.985 105.124 430.916 90.8212C424.21 84.0209 422.987 84.2476 422.987 84.2476C422.987 84.2476 423.553 87.7157 423.768 90.5265C424.221 96.3748 420.37 97.8708 396.288 95.5814C390.596 95.1196 384.866 95.5285 379.297 96.7941C373.123 96.6921 367.324 96.9981 362.306 96.7034C353.051 96.1707 359.032 83.2616 352.111 67.7229C333.104 25.2324 312.715 -39.8124 294.138 -69.8697C285.846 -83.2776 278.279 -86.5984 272.842 -86.3604C271.313 -86.2924 253.302 -81.3848 245.113 -74.8225C236.923 -68.2603 224.316 -37.4209 234.136 27.9525C245.634 104.456 273.329 121.139 263.588 154.121C254.027 186.739 247.82 264.999 241.794 304.532C239.222 321.408 243.391 351.284 258.468 357.132C274.326 363.263 337.227 350.332 400.162 344.019C427.268 329.285 388.835 250.231 398.587 240.666C401.646 237.673 425.32 259.298 431.437 268.751C438.618 279.881 443.263 344.687 464.162 350.23C474.832 353.04 491.993 348.858 498.201 340.97C506.198 330.758 513.98 253.484 492.548 205.757Z" fill="#313131"/>
<path d="M497.397 341.808C497.657 341.536 497.929 341.253 498.167 340.958C501.815 336.323 505.417 317.815 506.244 294.49H445.529C435.334 242.354 408.148 206.789 380.589 183.294C407.232 160.862 427.259 131.587 438.517 98.6187C436.025 96.0232 433.442 93.3938 430.871 90.7757C424.165 83.9754 422.942 84.2021 422.942 84.2021C422.942 84.2021 423.508 87.6702 423.724 90.481C424.177 96.3292 420.325 97.8253 396.243 95.5359L394.827 95.4339C383.5 122.261 364.674 144.736 338.508 162.609C326.313 170.902 313.251 177.837 299.553 183.294C313.24 188.746 326.291 195.678 338.474 203.967C371.901 226.793 393.31 257.145 402.496 294.49H406.698C401.726 270.292 393.355 245.686 398.543 240.62C401.601 237.628 425.275 259.253 431.392 268.705C433.941 272.661 436.172 283.439 438.925 295.838C445.157 298.406 451.212 301.386 457.049 304.758C473.077 313.963 486.858 326.618 497.397 341.808Z" fill="#0077FF"/>
<path d="M76.742 137.822C56.8284 153.69 -7.54512 214.779 -7.55645 219.131C-7.61309 240.303 5.08483 281.784 25.9046 280.084C46.7243 278.384 91.0371 214.609 91.0371 214.609L76.742 137.822Z" fill="#313131"/>
<path d="M1.51758 274.349C-2.60559 281.07 25.8374 324.388 46.7365 354.604C67.6355 384.82 143.506 449.808 154.256 416.532C165.006 383.256 106.409 264.659 106.409 264.659C106.409 264.659 9.94516 260.658 1.51758 274.349Z" fill="#313131"/>
<path d="M144.345 366.006C144.345 366.006 127.784 701.895 123.797 704.887C97.5853 724.653 -34.6166 656.321 -32.8835 641.417C-31.1504 626.513 29.5531 367.366 29.5531 367.366L106.727 346.047L144.345 366.006Z" fill="#D6ECFF"/>
<path d="M97.3121 706.996L96.4512 706.259C105.445 695.662 128.678 365.372 128.904 362.028L130.037 362.108C129.086 375.742 106.544 696.172 97.3121 706.996Z" fill="#1A1A66"/>
<path d="M38.1262 276.548C23.0381 267.798 -23.6421 331.676 -69.1442 358.423C-66.1311 354.275 -68.8044 337.512 -79.758 316.012C-79.8503 315.807 -79.9876 315.626 -80.1596 315.481C-80.3317 315.337 -80.5339 315.233 -80.7516 315.177C-80.9693 315.122 -81.1966 315.116 -81.4168 315.161C-81.637 315.205 -81.8443 315.299 -82.0234 315.434C-104.452 333.33 -164.827 431.039 -195.297 413.256C-200.157 412.316 -146.148 470.753 -105.675 478.992C-50.3407 490.326 -7.12682 470.878 117.384 367.524C149.406 340.947 57.6772 287.893 38.1262 276.548Z" fill="#D6ECFF"/>
<path d="M38.4333 335.133C7.8493 360.521 -9.79874 452.574 -56.5469 479.446C-37.7434 475.457 -17.1729 466.299 8.59695 449.978C12.3916 426.563 24.2174 359.126 38.4333 335.133Z" fill="#FF582A"/>
<path d="M144.344 366.006L124.057 355.251C125.518 327.143 54.9595 286.33 38.1384 276.549C33.177 273.67 24.7946 278.645 14.1582 287.588C41.865 277.263 77.5916 287.112 142.701 423.82C143.959 399.226 144.344 366.006 144.344 366.006Z" fill="#FF582A"/>
<path d="M172.482 43.0607C177.376 35.3991 198.535 1.4543 202.432 -8.71213C206.329 -18.8786 219.876 -95.5632 217.962 -113.811C216.048 -132.058 197.04 -163.555 199.34 -165.946C203.44 -170.264 214.654 -153.354 215.413 -155.27C218.71 -163.645 212.865 -187.446 216.818 -190.495C217.66 -191.193 218.735 -191.544 219.827 -191.479C220.918 -191.414 221.943 -190.937 222.697 -190.144C222.697 -190.144 224.328 -193.816 231.022 -192.592C235.553 -191.765 236.403 -162.251 237.672 -162.161C240.413 -161.968 242.395 -186.936 244.706 -187.095C250.143 -187.322 247.764 -170.468 249.894 -150.215C251.774 -132.455 249.259 -112.621 249.259 -112.621C249.259 -112.621 255.286 -35.2106 248.852 1.85098C243.743 31.2282 222.244 69.0832 213.431 83.7718C198.139 109.216 172.482 43.0607 172.482 43.0607Z" fill="#FFA9A9"/>
<path d="M84.0149 56.6383C84.0149 56.6383 76.8333 39.2182 55.1979 36.8947C38.6033 35.1153 19.8565 51.9914 27.4006 79.9633C-15.5529 126.092 41.9789 171.167 84.8078 134.887L84.0149 56.6383Z" fill="#D6ECFF"/>
<path d="M76.3691 112.072C82.2707 116.175 85.7708 125.729 84.8307 133.55C83.8905 141.37 114.101 119.405 114.101 119.405L117.635 106.314L76.3691 112.072Z" fill="#FFA9A9"/>
<path d="M66.1956 56.0038C67.6033 55.1955 69.186 54.7412 70.8079 54.68C72.4298 54.6188 74.0422 54.9525 75.5067 55.6525C79.8225 57.6245 87.6044 61.3194 89.2922 61.818C90.5156 62.2034 98.0596 61.7047 100.62 64.5042C103.18 67.3036 99.5661 70.7038 102.092 72.5852C111.63 79.7255 123.24 87.0584 125.053 92.986C130.15 109.839 104.426 125.945 79.7432 115.132C71.5874 117.263 64.8477 113.364 64.2133 106.972C63.3525 98.3583 70.7039 99.4576 71.5648 94.6974C72.471 89.7446 65.3688 75.26 63.3978 64.0962C62.5256 59.4833 63.8962 57.3866 66.1956 56.0038Z" fill="#FFA9A9"/>
<path d="M82.9494 67.315C84.7278 68.4484 84.8865 69.3324 83.5725 70.7152C82.6436 71.6785 80.8992 72.8799 79.4492 70.2958C78.3505 68.2784 79.9476 65.3429 82.9494 67.315Z" fill="#313131"/>
<path d="M98.0503 71.3384C100.633 67.4622 101.777 66.5441 100.667 64.5947C103 67.4622 99.6813 70.8056 102.06 72.585C97.0307 75.4525 96.793 73.2311 98.0503 71.3384Z" fill="#FF8481"/>
<path d="M105.094 74.9541C101.356 80.179 90.6858 83.5451 93.325 87.3646C95.9643 91.1841 112.514 90.6628 116.671 83.3638C116.671 83.3638 109.704 78.2749 105.094 74.9541Z" fill="white"/>
<path d="M74.3744 57.8279C77.546 58.44 73.7515 72.7173 71.8825 72.0405C70.3175 71.4738 71.1459 56.7399 74.3744 57.8279Z" fill="#D6ECFF"/>
<path d="M170.329 35.5123C166.931 35.6143 135.486 79.2608 105.627 107.867C75.7684 136.474 60.1027 150.505 55.1526 160.774C45.8981 180.041 51.2219 223.11 47.3367 230.794C40.8914 239.986 36.3037 241.652 14.9855 258.494C9.52574 262.812 1.22288 270.689 1.51739 274.361C1.51739 274.361 19.3013 256.612 64.8488 300.214C138.613 370.812 158.311 412.86 154.256 416.544C154.256 416.544 159.534 389.558 166.501 322.654C174.668 244.236 184.783 172.799 191.421 154.54C205.206 116.878 221.156 98.857 222.877 95.3661C224.599 91.8753 177.013 35.3083 170.329 35.5123Z" fill="#FF582A"/>
<path d="M85.8487 318.189C85.6754 318.205 85.501 318.205 85.3277 318.189C84.8013 318.087 84.3353 317.783 84.0286 317.343C83.722 316.903 83.5987 316.361 83.6851 315.831C84.3081 312.068 133.22 181.627 150.064 149.224C173.002 105.022 205.455 67.1332 205.783 66.7479C205.955 66.5485 206.164 66.385 206.398 66.2667C206.633 66.1485 206.889 66.0779 207.151 66.0589C207.413 66.0399 207.676 66.073 207.926 66.1562C208.175 66.2395 208.405 66.3712 208.604 66.5439C209.006 66.8922 209.254 67.3855 209.295 67.9162C209.335 68.447 209.164 68.9721 208.819 69.3773C208.49 69.7513 176.332 107.255 153.62 151.071C136.267 184.529 88.8278 312.012 87.6271 316.647C87.5391 317.063 87.3177 317.439 86.9967 317.717C86.6756 317.995 86.2725 318.161 85.8487 318.189Z" fill="white"/>
<path d="M162.377 43.5476C162.377 43.5476 167.757 36.3167 170.306 35.512C172.855 34.7073 185.349 44.0237 205.025 61.8631C222.106 77.3565 227.849 85.6642 227.011 88.373C226.218 90.9571 222.684 95.7626 221.279 97.984C221.302 97.984 187.207 54.6775 162.377 43.5476Z" fill="white"/>
<path d="M99.0469 313.168C57.0336 270.349 27.2085 256.499 11.6333 261.599C7.5781 265.464 1.32545 271.868 1.51802 274.35C1.51802 274.35 19.3019 256.601 64.8607 300.202C133.641 366.04 155.401 407.035 154.732 415.263C155.491 412.838 156.998 406.275 158.368 390C149.907 373.158 133.278 348.053 99.0469 313.168Z" fill="white"/>
<path d="M154.256 416.532C154.567 416.183 154.736 415.73 154.732 415.263C154.616 415.701 154.456 416.126 154.256 416.532Z" fill="#FF582A"/>
<path d="M219.796 100.013C209.806 111.426 185.316 133.47 177.035 152.851C171.372 166.044 180.15 191.057 176.05 241.198C181.714 198.878 187.241 166.112 191.466 154.574C202.16 125.321 214.144 107.946 219.796 100.013Z" fill="#FF582A"/>
<path d="M362.193 32.8369C357.9 31.0235 349.733 15.8362 356.586 7.15451C361.366 1.14758 369.624 3.38035 374.087 1.4876C378.867 -0.586489 383.704 -11.467 393.4 -10.4809C403.991 -9.40421 406.28 -2.63791 410.391 -0.178473C415.341 2.76832 429.75 1.23825 434.632 9.20592C439.899 17.7856 435.176 23.7132 437.181 27.714C439.186 31.7149 445.404 35.0924 445.427 43.1394C445.427 51.8777 437.77 55.2439 434.825 59.7661C432.763 62.9282 437.906 70.0912 433.058 77.1861C428.209 84.2811 418.558 83.0004 416.508 86.2532C414.458 89.506 399.302 100.987 379.128 93.0535C358.954 85.1198 366.486 30.1735 366.486 30.1735L362.193 32.8369Z" fill="#313131"/>
<path d="M387.566 95.5476C387.215 89.6087 387.759 80.0996 389.243 78.8302C399.437 70.1258 340.274 81.9357 340.274 81.9357C344.488 86.1745 322.422 116.663 330.975 117.331C333.059 117.49 337.522 114.725 344.567 111.37C354.717 105.238 371.277 96.8624 387.566 95.5476Z" fill="#FF8481"/>
<path d="M375.616 89.3026C382.9 84.5537 372.354 82.6044 366.962 83.8057L360.777 78.2861C349.937 80.0089 340.275 81.9356 340.275 81.9356C341.895 83.5677 339.618 89.0986 336.695 95.3096C347.422 100.398 370.179 92.8501 375.616 89.3026Z" fill="#E85353"/>
<path d="M342.517 85.0405C328.641 79.2602 324.393 62.8942 330.057 52.0024C340.943 31.0689 366.191 10.8267 376.783 9.90862C385.641 9.14926 400.91 13.5354 405.305 24.6426C408.998 33.9476 400.366 47.4122 394.77 61.5568C392.346 67.6771 395.756 66.9177 400.208 69.3545C404.659 71.7913 404.648 78.1495 399.199 81.323C394.08 84.3151 389.254 83.0004 386.411 82.309C383.568 81.6177 366.554 95.0596 342.517 85.0405Z" fill="#FF8481"/>
<path d="M346.322 37.2005C349.46 37.9712 350.049 39.626 356.574 44.8168C365.375 51.8211 371.469 54.4279 372.738 57.9641C374.55 63.0076 352.235 71.712 340.104 58.8368C334.304 52.6712 342.12 36.1692 346.322 37.2005Z" fill="white"/>
<path d="M375.682 34.4239C373.7 36.0106 373.655 37.3366 375.784 38.6627C377.11 39.4901 378.469 39.3314 379.613 37.4047C380.961 35.2172 378.707 32.0097 375.682 34.4239Z" fill="#313131"/>
<path d="M356.19 20.8236C354.151 22.3196 357.776 22.5463 359.396 24.4617C361.288 26.7285 362.601 28.7119 363.304 27.0458C364.176 24.9944 359.067 18.6928 356.19 20.8236Z" fill="#313131"/>
<path d="M367.539 28.0774C366.157 27.1254 357.344 29.8115 356.404 32.611C354.66 37.9492 359.927 40.7713 361.649 40.2499C363.099 39.8193 357.707 37.9832 359.383 33.971C360.833 30.2989 369.272 29.2675 367.539 28.0774Z" fill="#E85353"/>
<path d="M357.208 15.8936C356.245 18.8291 371.367 22.0252 373.248 18.1604C376.204 12.1535 358.318 12.5388 357.208 15.8936Z" fill="#313131"/>
<path d="M394.295 33.3587C397.399 32.2253 389.764 17.3553 385.233 18.398C378.233 20.0301 390.727 34.7187 394.295 33.3587Z" fill="#313131"/>
<path d="M-85.7723 469.756C-88.0563 469.775 -90.3354 469.543 -92.5688 469.064C-104.542 466.367 -105.493 444.787 -106.592 419.819C-107.555 398.171 -108.631 373.634 -117.059 356.746L-116.05 356.236C-107.51 373.339 -106.422 398.001 -105.459 419.706C-104.327 444.221 -103.443 465.392 -92.3196 467.897C-61.7356 474.788 12.8553 424.681 13.6142 424.171L14.2486 425.112C14.056 425.237 -4.84946 437.976 -27.3117 449.684C-52.8096 463.046 -72.4287 469.756 -85.7723 469.756Z" fill="#1A1A66"/>
<path d="M-33.2352 640.08L-34.2773 639.831L-34.0961 639.072C-1.60911 501.932 7.12438 465.052 13.4111 424.613C26.313 341.763 45.4109 321.067 45.6034 320.863L46.3738 321.6C46.1812 321.793 27.2984 342.364 14.4645 424.738C8.16642 465.211 -0.566998 502.08 -33.1106 639.276L-33.2352 640.08Z" fill="#FF582A"/>
<path d="M440.522 134.433C429.432 124.663 402.563 106.325 361.955 112.899C361.493 112.99 361.014 112.902 360.614 112.653C360.215 112.404 359.924 112.013 359.802 111.558C359.68 111.103 359.735 110.619 359.955 110.203C360.176 109.787 360.547 109.47 360.992 109.317C376.85 103.537 407.174 98.7768 453.276 117.557C453.276 117.512 462.021 128.687 440.522 134.433Z" fill="#313131"/>
<path d="M322.795 111.698C320.87 111.913 319.08 119.178 322.422 119.19C325.763 119.201 325.616 111.347 322.795 111.698Z" fill="#313131"/>
<path d="M341.6 122.828C340.932 120.822 332.912 123.463 334.147 125.242C335.381 127.021 342.914 126.84 341.6 122.828Z" fill="#313131"/>
<path d="M328.97 160.728C326.374 160.797 323.851 159.864 321.925 158.121C317.552 154.143 316.725 148.113 319.659 141.12C323.409 132.053 332.856 123.36 338.712 123.632C339 123.65 339.271 123.777 339.469 123.987C339.667 124.198 339.777 124.476 339.777 124.766C339.759 125.054 339.632 125.325 339.422 125.523C339.211 125.721 338.933 125.831 338.644 125.831C334.113 125.638 325.447 133.017 321.766 141.948C319.999 146.209 318.878 152.148 323.522 156.41C329.978 162.281 342.427 154.234 354.457 146.459C364.652 139.851 374.314 133.606 381.643 134.513C384.159 134.781 386.56 135.707 388.606 137.197C390.652 138.686 392.27 140.688 393.299 143.002C394.373 145.266 395.04 147.702 395.27 150.199C395.27 150.486 395.162 150.763 394.966 150.973C394.771 151.184 394.503 151.312 394.216 151.332C393.931 151.333 393.655 151.226 393.445 151.033C393.235 150.839 393.106 150.574 393.083 150.289C393.083 149.791 392.223 138.015 381.416 136.689C374.926 135.884 365.184 142.197 355.748 148.283C346.313 154.37 336.492 160.728 328.97 160.728Z" fill="#FF582A"/>
<path d="M392.551 143.976C390.512 143.5 390.796 146.175 391.566 153.043C392.336 159.912 393.118 164.377 395.247 164.525C397.377 164.672 397.513 161 396.516 152.307C395.519 143.614 393.899 144.294 392.551 143.976Z" fill="#D6ECFF"/>
<path d="M354.705 194.083C354.421 194.085 354.146 193.98 353.935 193.789C353.727 193.577 353.611 193.292 353.611 192.995C353.611 192.699 353.727 192.414 353.935 192.202C354.105 192.032 370.133 174.657 365.002 162.031C360.992 152.148 353.04 152.556 344.612 152.964C337.816 153.304 330.816 153.667 325.945 148.431C315.274 136.859 321.81 115.971 322.105 115.087C322.201 114.808 322.401 114.578 322.663 114.445C322.925 114.312 323.228 114.286 323.509 114.373C323.787 114.468 324.017 114.668 324.15 114.931C324.284 115.193 324.31 115.497 324.223 115.778C324.223 115.982 317.8 136.303 327.621 146.912C331.79 151.445 337.975 151.105 344.533 150.777C352.938 150.346 362.476 149.859 367.086 161.215C372.75 175.156 356.291 193.006 355.589 193.755C355.474 193.87 355.335 193.958 355.183 194.015C355.03 194.072 354.867 194.095 354.705 194.083Z" fill="#FF582A"/>
<path d="M358.456 187.351C357.323 185.594 355.669 187.714 351.421 193.222C347.174 198.73 344.693 202.414 346.098 204.034C347.502 205.655 350.175 203.071 355.499 196.101C360.823 189.13 359.203 188.518 358.456 187.351Z" fill="#D6ECFF"/>
<path d="M475.364 439.688C472.725 438.554 469.961 440.73 459.891 444.074C449.821 447.417 443.013 452.393 432.06 451.894C421.106 451.395 433.068 498.544 443.036 500.811C453.004 503.078 466.268 507.373 475.217 511.793C491.223 519.727 536.17 545.897 547.984 546.248C558.847 546.577 568.113 538.881 567.716 531.151C567.399 525.031 475.364 439.688 475.364 439.688Z" fill="#FF582A"/>
<path d="M567.717 531.152C567.4 525.02 475.365 439.688 475.365 439.688C472.726 438.554 469.962 440.73 459.892 444.074C457.626 444.845 455.44 445.695 453.39 446.545C450.762 452.62 452.461 461.709 465.624 467.081C482.83 474.086 505.179 486.7 517.005 504.268C526.066 517.766 540.498 537.589 550.33 546.203C560.139 545.432 568.091 538.315 567.717 531.152Z" fill="#313131"/>
<path d="M452.053 478.052C456.21 475.717 448.655 456.79 453.922 446.317C447.726 448.867 442.334 451.463 435.368 451.86C432.842 454.5 431.732 459.544 434.586 467.364C437.882 476.375 447.409 480.659 452.053 478.052Z" fill="#313131"/>
<path d="M454.534 604.005C454.308 603.925 431.336 595.606 405.827 583.966C371.482 568.28 349.19 554.34 339.437 542.541C309 505.536 348.272 413.506 367.144 369.281C371.822 358.31 375.209 350.388 375.583 347.747L377.848 348.076C377.429 350.989 374.178 358.605 369.25 370.143C350.549 413.959 311.639 505.14 341.204 541.079C363.859 568.654 454.399 601.523 455.316 601.851L454.534 604.005Z" fill="#0077FF"/>
<path d="M358.421 393.331C350.741 393.173 344.375 390.509 339.504 385.398C328.584 373.962 328.958 354.468 328.981 353.663L331.246 353.72C331.246 353.912 330.895 373.123 341.158 383.856C343.402 386.176 346.095 388.012 349.073 389.253C352.052 390.495 355.252 391.115 358.477 391.076L358.421 393.331Z" fill="#0077FF"/>
<path d="M496.886 250.628C500.222 255.826 503.208 261.24 505.824 266.835C504.487 245.72 500.556 223.665 492.514 205.757C485.038 189.108 471.773 171.234 458.645 155.594C451.981 160.309 444.989 164.544 437.723 168.265C425.478 174.486 412.669 179.529 399.471 183.328C412.678 187.116 425.495 192.155 437.746 198.379C463.097 211.401 483.01 228.992 496.886 250.628Z" fill="#0077FF"/>
<path d="M325.503 294.524C316.441 243.793 288.452 206.913 264.245 183.566L263.996 183.328L264.256 183.078C288.463 159.731 316.487 122.862 325.515 72.1201H289.12C284.505 92.3746 276.003 111.54 264.086 128.551C266.262 136.956 266.086 145.798 263.577 154.109C259.046 169.58 255.262 195.341 251.887 222.35C267.303 240.201 282.346 264.285 289.108 294.524H325.503Z" fill="#0077FF"/>
<path d="M279.831 358.424C288.01 357.948 297.853 356.894 308.863 355.523C300.379 334.419 288.178 315.01 272.842 298.219C271.672 296.949 270.49 295.703 269.297 294.479H243.244C242.757 298.026 242.281 301.369 241.816 304.475C241.726 305.008 241.658 305.552 241.59 306.118C257.783 320.749 270.799 338.552 279.831 358.424Z" fill="#0077FF"/>
<path d="M386.49 294.523H327.588C337.153 299.021 346.206 304.534 354.592 310.969C367.02 320.549 377.66 332.247 386.026 345.526C390.715 344.989 395.42 344.483 400.14 344.007C407.276 340.142 409.859 331.812 409.983 321.464C403.148 311.661 395.271 302.628 386.49 294.523Z" fill="#0077FF"/>
<path d="M318.13 -17.8585C315.207 -25.2368 312.296 -32.3658 309.408 -39.0527H294.127C286.878 5.39849 265.809 39.1506 240.82 61.1722C241.825 65.0257 242.856 68.6827 243.913 72.1433H269.32C270.513 70.9193 271.691 69.6725 272.854 68.4032C289.596 50.1444 308.513 22.0252 318.13 -17.8585Z" fill="#0077FF"/>
<path d="M253.812 200.079L252.68 199.943C262.444 119.62 310.234 78.4783 310.721 78.0703L311.435 78.9317C310.982 79.3283 263.543 120.209 253.812 200.079Z" fill="#FF582A"/>
<path d="M16.6045 117.376C11.7903 102.313 -12.7108 87.4774 -30.7893 108.479C-46.1266 126.284 -30.5628 156.602 -5.77847 153.293C12.6172 150.845 22.2682 134.977 16.6045 117.376Z" fill="#D6ECFF"/>
</g>
</g>
<path d="M246.829 331.66C143.108 331.66 80.162 259.698 77.7148 140.116H130.247C131.884 227.958 171.849 265.236 202.485 272.835V140.116H252.846V215.906C282.396 212.631 313.309 178.149 323.723 140.116H373.237C365.307 186.907 331.653 221.389 307.844 235.612C331.653 247.112 369.962 277.215 384.737 331.66H330.292C318.792 295.265 290.603 267.076 252.846 263.249V331.66H246.829Z" fill="white"/>
</g>
<defs>
<clipPath id="clip0_403_2333">
<rect width="460" height="460" fill="white"/>
</clipPath>
<clipPath id="clip1_403_2333">
<rect width="772.143" height="1124.38" fill="white" transform="translate(-197.143 -213.571)"/>
</clipPath>
</defs>
</svg>
